^C:\USERS\CEBEP9HUH\SOURCE\REPOS\HOMEWORK_14\HOMEWORK_14.CPP
C:\USERS\CEBEP9HUH\SOURCE\REPOS\HOMEWORK_14\DEBUG\VC142.PDB
C:\USERS\CEBEP9HUH\SOURCE\REPOS\HOMEWORK_14\DEBUG\VC142.IDB
C:\USERS\CEBEP9HUH\SOURCE\REPOS\HOMEWORK_14\DEBUG\HOMEWORK_14.OBJ
